^D:\Praktikum\Projekte\Visual_Studio\F103_Bootloader_Desktop\F103_Bootloader_Desktop.vcxproj
D:\Praktikum\Projekte\Visual_Studio\F103_Bootloader_Desktop\Debug\F103BootloaderDesktop.MainForm.resources
D:\Praktikum\Projekte\Visual_Studio\F103_Bootloader_Desktop\Debug\F103BootloaderDesktop.PasswordForm.resources
^D:\Praktikum\Projekte\Visual_Studio\F103_Bootloader_Desktop\F103_Bootloader_Desktop.vcxproj
D:\Praktikum\Projekte\Visual_Studio\F103_Bootloader_Desktop\Debug\F103BootloaderDesktop.MainForm.resources
D:\Praktikum\Projekte\Visual_Studio\F103_Bootloader_Desktop\Debug\F103BootloaderDesktop.PasswordForm.resources
^D:\Praktikum\Projekte\Visual_Studio\F103_Bootloader_Desktop\F103_Bootloader_Desktop.vcxproj
D:\Praktikum\Projekte\Visual_Studio\F103_Bootloader_Desktop\Debug\F103BootloaderDesktop.MainForm.resources
D:\Praktikum\Projekte\Visual_Studio\F103_Bootloader_Desktop\Debug\F103BootloaderDesktop.PasswordForm.resources
^D:\Praktikum\Projekte\Visual_Studio\F103_Bootloader_Desktop\F103_Bootloader_Desktop.vcxproj
D:\Praktikum\Projekte\Visual_Studio\F103_Bootloader_Desktop\Debug\F103BootloaderDesktop.MainForm.resources
D:\Praktikum\Projekte\Visual_Studio\F103_Bootloader_Desktop\Debug\F103BootloaderDesktop.PasswordForm.resources
^D:\Praktikum\Projekte\Visual_Studio\F103_Bootloader_Desktop\F103_Bootloader_Desktop.vcxproj
D:\Praktikum\Projekte\Visual_Studio\F103_Bootloader_Desktop\Debug\F103BootloaderDesktop.MainForm.resources
D:\Praktikum\Projekte\Visual_Studio\F103_Bootloader_Desktop\Debug\F103BootloaderDesktop.PasswordForm.resources
^D:\Praktikum\Projekte\Visual_Studio\F103_Bootloader_Desktop\F103_Bootloader_Desktop.vcxproj
D:\Praktikum\Projekte\Visual_Studio\F103_Bootloader_Desktop\Debug\F103BootloaderDesktop.MainForm.resources
D:\Praktikum\Projekte\Visual_Studio\F103_Bootloader_Desktop\Debug\F103BootloaderDesktop.PasswordForm.resources
^D:\Praktikum\Projekte\Visual_Studio\F103_Bootloader_Desktop\F103_Bootloader_Desktop.vcxproj
D:\Praktikum\Projekte\Visual_Studio\F103_Bootloader_Desktop\Debug\F103BootloaderDesktop.MainForm.resources
D:\Praktikum\Projekte\Visual_Studio\F103_Bootloader_Desktop\Debug\F103BootloaderDesktop.PasswordForm.resources
^D:\Praktikum\Projekte\Visual_Studio\F103_Bootloader_Desktop\F103_Bootloader_Desktop.vcxproj
D:\Praktikum\Projekte\Visual_Studio\F103_Bootloader_Desktop\Debug\F103BootloaderDesktop.MainForm.resources
D:\Praktikum\Projekte\Visual_Studio\F103_Bootloader_Desktop\Debug\F103BootloaderDesktop.PasswordForm.resources
^D:\Praktikum\Projekte\Visual_Studio\F103_Bootloader_Desktop\F103_Bootloader_Desktop.vcxproj
D:\Praktikum\Projekte\Visual_Studio\F103_Bootloader_Desktop\Debug\F103BootloaderDesktop.MainForm.resources
D:\Praktikum\Projekte\Visual_Studio\F103_Bootloader_Desktop\Debug\F103BootloaderDesktop.PasswordForm.resources
^D:\Praktikum\Projekte\Visual_Studio\F103_Bootloader_Desktop\F103_Bootloader_Desktop.vcxproj
D:\Praktikum\Projekte\Visual_Studio\F103_Bootloader_Desktop\Debug\F103BootloaderDesktop.MainForm.resources
D:\Praktikum\Projekte\Visual_Studio\F103_Bootloader_Desktop\Debug\F103BootloaderDesktop.PasswordForm.resources
^D:\Praktikum\Projekte\Visual_Studio\F103_Bootloader_Desktop\F103_Bootloader_Desktop.vcxproj
D:\Praktikum\Projekte\Visual_Studio\F103_Bootloader_Desktop\Debug\F103BootloaderDesktop.MainForm.resources
D:\Praktikum\Projekte\Visual_Studio\F103_Bootloader_Desktop\Debug\F103BootloaderDesktop.PasswordForm.resources
^D:\Praktikum\Projekte\Visual_Studio\F103_Bootloader_Desktop\F103_Bootloader_Desktop.vcxproj
D:\Praktikum\Projekte\Visual_Studio\F103_Bootloader_Desktop\Debug\F103BootloaderDesktop.MainForm.resources
D:\Praktikum\Projekte\Visual_Studio\F103_Bootloader_Desktop\Debug\F103BootloaderDesktop.PasswordForm.resources
^D:\Praktikum\Projekte\Visual_Studio\F103_Bootloader_Desktop\F103_Bootloader_Desktop.vcxproj
D:\Praktikum\Projekte\Visual_Studio\F103_Bootloader_Desktop\Debug\F103BootloaderDesktop.MainForm.resources
D:\Praktikum\Projekte\Visual_Studio\F103_Bootloader_Desktop\Debug\F103BootloaderDesktop.PasswordForm.resources
^D:\Praktikum\Projekte\Visual_Studio\F103_Bootloader_Desktop\F103_Bootloader_Desktop.vcxproj
D:\Praktikum\Projekte\Visual_Studio\F103_Bootloader_Desktop\Debug\F103BootloaderDesktop.MainForm.resources
D:\Praktikum\Projekte\Visual_Studio\F103_Bootloader_Desktop\Debug\F103BootloaderDesktop.PasswordForm.resources
^D:\Praktikum\Projekte\Visual_Studio\F103_Bootloader_Desktop\F103_Bootloader_Desktop.vcxproj
D:\Praktikum\Projekte\Visual_Studio\F103_Bootloader_Desktop\Debug\F103BootloaderDesktop.MainForm.resources
D:\Praktikum\Projekte\Visual_Studio\F103_Bootloader_Desktop\Debug\F103BootloaderDesktop.PasswordForm.resources
^D:\Praktikum\Projekte\Visual_Studio\F103_Bootloader_Desktop\F103_Bootloader_Desktop.vcxproj
D:\Praktikum\Projekte\Visual_Studio\F103_Bootloader_Desktop\Debug\F103BootloaderDesktop.MainForm.resources
D:\Praktikum\Projekte\Visual_Studio\F103_Bootloader_Desktop\Debug\F103BootloaderDesktop.PasswordForm.resources
^D:\Praktikum\Projekte\Visual_Studio\F103_Bootloader_Desktop\F103_Bootloader_Desktop.vcxproj
D:\Praktikum\Projekte\Visual_Studio\F103_Bootloader_Desktop\Debug\F103BootloaderDesktop.MainForm.resources
D:\Praktikum\Projekte\Visual_Studio\F103_Bootloader_Desktop\Debug\F103BootloaderDesktop.PasswordForm.resources
^D:\Praktikum\Projekte\Visual_Studio\F103_Bootloader_Desktop\F103_Bootloader_Desktop.vcxproj
D:\Praktikum\Projekte\Visual_Studio\F103_Bootloader_Desktop\Debug\F103BootloaderDesktop.MainForm.resources
D:\Praktikum\Projekte\Visual_Studio\F103_Bootloader_Desktop\Debug\F103BootloaderDesktop.PasswordForm.resources
^D:\Praktikum\Projekte\Visual_Studio\F103_Bootloader_Desktop\F103_Bootloader_Desktop.vcxproj
D:\Praktikum\Projekte\Visual_Studio\F103_Bootloader_Desktop\Debug\F103BootloaderDesktop.MainForm.resources
D:\Praktikum\Projekte\Visual_Studio\F103_Bootloader_Desktop\Debug\F103BootloaderDesktop.PasswordForm.resources
^D:\Praktikum\Projekte\Visual_Studio\F103_Bootloader_Desktop\F103_Bootloader_Desktop.vcxproj
D:\Praktikum\Projekte\Visual_Studio\F103_Bootloader_Desktop\Debug\F103BootloaderDesktop.MainForm.resources
D:\Praktikum\Projekte\Visual_Studio\F103_Bootloader_Desktop\Debug\F103BootloaderDesktop.PasswordForm.resources
^D:\Praktikum\Projekte\Visual_Studio\F103_Bootloader_Desktop\F103_Bootloader_Desktop.vcxproj
D:\Praktikum\Projekte\Visual_Studio\F103_Bootloader_Desktop\Debug\F103BootloaderDesktop.MainForm.resources
D:\Praktikum\Projekte\Visual_Studio\F103_Bootloader_Desktop\Debug\F103BootloaderDesktop.PasswordForm.resources
^D:\Praktikum\Projekte\Visual_Studio\F103_Bootloader_Desktop\F103_Bootloader_Desktop.vcxproj
D:\Praktikum\Projekte\Visual_Studio\F103_Bootloader_Desktop\Debug\F103BootloaderDesktop.MainForm.resources
D:\Praktikum\Projekte\Visual_Studio\F103_Bootloader_Desktop\Debug\F103BootloaderDesktop.PasswordForm.resources
^D:\Praktikum\Projekte\Visual_Studio\F103_Bootloader_Desktop\F103_Bootloader_Desktop.vcxproj
D:\Praktikum\Projekte\Visual_Studio\F103_Bootloader_Desktop\Debug\F103BootloaderDesktop.MainForm.resources
D:\Praktikum\Projekte\Visual_Studio\F103_Bootloader_Desktop\Debug\F103BootloaderDesktop.PasswordForm.resources
^D:\Praktikum\Projekte\Visual_Studio\F103_Bootloader_Desktop\F103_Bootloader_Desktop.vcxproj
D:\Praktikum\Projekte\Visual_Studio\F103_Bootloader_Desktop\Debug\F103BootloaderDesktop.MainForm.resources
D:\Praktikum\Projekte\Visual_Studio\F103_Bootloader_Desktop\Debug\F103BootloaderDesktop.PasswordForm.resources
^D:\Praktikum\Projekte\Visual_Studio\F103_Bootloader_Desktop\F103_Bootloader_Desktop.vcxproj
D:\Praktikum\Projekte\Visual_Studio\F103_Bootloader_Desktop\Debug\F103BootloaderDesktop.MainForm.resources
D:\Praktikum\Projekte\Visual_Studio\F103_Bootloader_Desktop\Debug\F103BootloaderDesktop.PasswordForm.resources
^D:\Praktikum\Projekte\Visual_Studio\F103_Bootloader_Desktop\F103_Bootloader_Desktop.vcxproj
D:\Praktikum\Projekte\Visual_Studio\F103_Bootloader_Desktop\Debug\F103BootloaderDesktop.MainForm.resources
D:\Praktikum\Projekte\Visual_Studio\F103_Bootloader_Desktop\Debug\F103BootloaderDesktop.PasswordForm.resources
^D:\Praktikum\Projekte\Visual_Studio\F103_Bootloader_Desktop\F103_Bootloader_Desktop.vcxproj
D:\Praktikum\Projekte\Visual_Studio\F103_Bootloader_Desktop\Debug\F103BootloaderDesktop.MainForm.resources
D:\Praktikum\Projekte\Visual_Studio\F103_Bootloader_Desktop\Debug\F103BootloaderDesktop.PasswordForm.resources
^D:\Praktikum\Projekte\Visual_Studio\F103_Bootloader_Desktop\F103_Bootloader_Desktop.vcxproj
D:\Praktikum\Projekte\Visual_Studio\F103_Bootloader_Desktop\Debug\F103BootloaderDesktop.MainForm.resources
D:\Praktikum\Projekte\Visual_Studio\F103_Bootloader_Desktop\Debug\F103BootloaderDesktop.PasswordForm.resources
^D:\Praktikum\Projekte\Visual_Studio\F103_Bootloader_Desktop\F103_Bootloader_Desktop.vcxproj
D:\Praktikum\Projekte\Visual_Studio\F103_Bootloader_Desktop\Debug\F103BootloaderDesktop.MainForm.resources
D:\Praktikum\Projekte\Visual_Studio\F103_Bootloader_Desktop\Debug\F103BootloaderDesktop.PasswordForm.resources
^D:\Praktikum\Projekte\Visual_Studio\F103_Bootloader_Desktop\F103_Bootloader_Desktop.vcxproj
D:\Praktikum\Projekte\Visual_Studio\F103_Bootloader_Desktop\Debug\F103BootloaderDesktop.MainForm.resources
D:\Praktikum\Projekte\Visual_Studio\F103_Bootloader_Desktop\Debug\F103BootloaderDesktop.PasswordForm.resources
^D:\Praktikum\Projekte\Visual_Studio\F103_Bootloader_Desktop\F103_Bootloader_Desktop.vcxproj
D:\Praktikum\Projekte\Visual_Studio\F103_Bootloader_Desktop\Debug\F103BootloaderDesktop.MainForm.resources
D:\Praktikum\Projekte\Visual_Studio\F103_Bootloader_Desktop\Debug\F103BootloaderDesktop.PasswordForm.resources
^D:\Praktikum\Projekte\Visual_Studio\F103_Bootloader_Desktop\F103_Bootloader_Desktop.vcxproj
D:\Praktikum\Projekte\Visual_Studio\F103_Bootloader_Desktop\Debug\F103BootloaderDesktop.MainForm.resources
D:\Praktikum\Projekte\Visual_Studio\F103_Bootloader_Desktop\Debug\F103BootloaderDesktop.PasswordForm.resources
^D:\Praktikum\Projekte\Visual_Studio\F103_Bootloader_Desktop\F103_Bootloader_Desktop.vcxproj
D:\Praktikum\Projekte\Visual_Studio\F103_Bootloader_Desktop\Debug\F103BootloaderDesktop.MainForm.resources
D:\Praktikum\Projekte\Visual_Studio\F103_Bootloader_Desktop\Debug\F103BootloaderDesktop.PasswordForm.resources
^D:\Praktikum\Projekte\Visual_Studio\F103_Bootloader_Desktop\F103_Bootloader_Desktop.vcxproj
D:\Praktikum\Projekte\Visual_Studio\F103_Bootloader_Desktop\Debug\F103BootloaderDesktop.MainForm.resources
D:\Praktikum\Projekte\Visual_Studio\F103_Bootloader_Desktop\Debug\F103BootloaderDesktop.PasswordForm.resources
^D:\Praktikum\Projekte\Visual_Studio\F103_Bootloader_Desktop\F103_Bootloader_Desktop.vcxproj
D:\Praktikum\Projekte\Visual_Studio\F103_Bootloader_Desktop\Debug\F103BootloaderDesktop.MainForm.resources
D:\Praktikum\Projekte\Visual_Studio\F103_Bootloader_Desktop\Debug\F103BootloaderDesktop.PasswordForm.resources
^D:\Praktikum\Projekte\Visual_Studio\F103_Bootloader_Desktop\F103_Bootloader_Desktop.vcxproj
D:\Praktikum\Projekte\Visual_Studio\F103_Bootloader_Desktop\Debug\F103BootloaderDesktop.MainForm.resources
D:\Praktikum\Projekte\Visual_Studio\F103_Bootloader_Desktop\Debug\F103BootloaderDesktop.PasswordForm.resources
^D:\Praktikum\Projekte\Visual_Studio\F103_Bootloader_Desktop\F103_Bootloader_Desktop.vcxproj
D:\Praktikum\Projekte\Visual_Studio\F103_Bootloader_Desktop\Debug\F103BootloaderDesktop.MainForm.resources
D:\Praktikum\Projekte\Visual_Studio\F103_Bootloader_Desktop\Debug\F103BootloaderDesktop.PasswordForm.resources
^D:\Praktikum\Projekte\Visual_Studio\F103_Bootloader_Desktop\F103_Bootloader_Desktop.vcxproj
D:\Praktikum\Projekte\Visual_Studio\F103_Bootloader_Desktop\Debug\F103BootloaderDesktop.MainForm.resources
D:\Praktikum\Projekte\Visual_Studio\F103_Bootloader_Desktop\Debug\F103BootloaderDesktop.PasswordForm.resources
^D:\Praktikum\Projekte\Visual_Studio\F103_Bootloader_Desktop\F103_Bootloader_Desktop.vcxproj
D:\Praktikum\Projekte\Visual_Studio\F103_Bootloader_Desktop\Debug\F103BootloaderDesktop.MainForm.resources
D:\Praktikum\Projekte\Visual_Studio\F103_Bootloader_Desktop\Debug\F103BootloaderDesktop.PasswordForm.resources
^D:\Praktikum\Projekte\Visual_Studio\F103_Bootloader_Desktop\F103_Bootloader_Desktop.vcxproj
D:\Praktikum\Projekte\Visual_Studio\F103_Bootloader_Desktop\Debug\F103BootloaderDesktop.MainForm.resources
D:\Praktikum\Projekte\Visual_Studio\F103_Bootloader_Desktop\Debug\F103BootloaderDesktop.PasswordForm.resources
^D:\Praktikum\Projekte\Visual_Studio\F103_Bootloader_Desktop\F103_Bootloader_Desktop.vcxproj
D:\Praktikum\Projekte\Visual_Studio\F103_Bootloader_Desktop\Debug\F103BootloaderDesktop.MainForm.resources
D:\Praktikum\Projekte\Visual_Studio\F103_Bootloader_Desktop\Debug\F103BootloaderDesktop.PasswordForm.resources
^D:\Praktikum\Projekte\Visual_Studio\F103_Bootloader_Desktop\F103_Bootloader_Desktop.vcxproj
D:\Praktikum\Projekte\Visual_Studio\F103_Bootloader_Desktop\Debug\F103BootloaderDesktop.MainForm.resources
D:\Praktikum\Projekte\Visual_Studio\F103_Bootloader_Desktop\Debug\F103BootloaderDesktop.PasswordForm.resources
^D:\Praktikum\Projekte\Visual_Studio\F103_Bootloader_Desktop\F103_Bootloader_Desktop.vcxproj
D:\Praktikum\Projekte\Visual_Studio\F103_Bootloader_Desktop\Debug\F103BootloaderDesktop.MainForm.resources
D:\Praktikum\Projekte\Visual_Studio\F103_Bootloader_Desktop\Debug\F103BootloaderDesktop.PasswordForm.resources
^D:\Praktikum\Projekte\Visual_Studio\F103_Bootloader_Desktop\F103_Bootloader_Desktop.vcxproj
D:\Praktikum\Projekte\Visual_Studio\F103_Bootloader_Desktop\Debug\F103BootloaderDesktop.MainForm.resources
D:\Praktikum\Projekte\Visual_Studio\F103_Bootloader_Desktop\Debug\F103BootloaderDesktop.PasswordForm.resources
^D:\Praktikum\Projekte\Visual_Studio\F103_Bootloader_Desktop\F103_Bootloader_Desktop.vcxproj
D:\Praktikum\Projekte\Visual_Studio\F103_Bootloader_Desktop\Debug\F103BootloaderDesktop.MainForm.resources
D:\Praktikum\Projekte\Visual_Studio\F103_Bootloader_Desktop\Debug\F103BootloaderDesktop.PasswordForm.resources
^D:\Praktikum\Projekte\Visual_Studio\F103_Bootloader_Desktop\F103_Bootloader_Desktop.vcxproj
D:\Praktikum\Projekte\Visual_Studio\F103_Bootloader_Desktop\Debug\F103BootloaderDesktop.MainForm.resources
D:\Praktikum\Projekte\Visual_Studio\F103_Bootloader_Desktop\Debug\F103BootloaderDesktop.PasswordForm.resources
^D:\Praktikum\Projekte\Visual_Studio\F103_Bootloader_Desktop\F103_Bootloader_Desktop.vcxproj
D:\Praktikum\Projekte\Visual_Studio\F103_Bootloader_Desktop\Debug\F103BootloaderDesktop.MainForm.resources
D:\Praktikum\Projekte\Visual_Studio\F103_Bootloader_Desktop\Debug\F103BootloaderDesktop.PasswordForm.resources
^D:\Praktikum\Projekte\Visual_Studio\F103_Bootloader_Desktop\F103_Bootloader_Desktop.vcxproj
D:\Praktikum\Projekte\Visual_Studio\F103_Bootloader_Desktop\Debug\F103BootloaderDesktop.MainForm.resources
D:\Praktikum\Projekte\Visual_Studio\F103_Bootloader_Desktop\Debug\F103BootloaderDesktop.PasswordForm.resources
