^D:\PRAKTIKUM\PROJEKTE\VISUAL_STUDIO\F103_BOOTLOADER_DESKTOP\RELEASE\.NETFRAMEWORK,VERSION=V4.7.2.ASSEMBLYATTRIBUTES.OBJ|D:\PRAKTIKUM\PROJEKTE\VISUAL_STUDIO\F103_BOOTLOADER_DESKTOP\RELEASE\MAINFORM.OBJ|D:\PRAKTIKUM\PROJEKTE\VISUAL_STUDIO\F103_BOOTLOADER_DESKTOP\RELEASE\SENDER.OBJ
D:\PRAKTIKUM\PROJEKTE\VISUAL_STUDIO\F103_BOOTLOADER_DESKTOP\RELEASE\MAINFORM.OBJ
D:\PRAKTIKUM\PROJEKTE\VISUAL_STUDIO\F103_BOOTLOADER_DESKTOP\RELEASE\SENDER.OBJ
D:\PRAKTIKUM\PROJEKTE\VISUAL_STUDIO\F103_BOOTLOADER_DESKTOP\RELEASE\.NETFRAMEWORK,VERSION=V4.7.2.ASSEMBLYATTRIBUTES.OBJ
C:\WINDOWS\GLOBALIZATION\SORTING\SORTDEFAULT.NLS
C:\PROGRAM FILES (X86)\MICROSOFT VISUAL STUDIO\2019\ENTERPRISE\VC\TOOLS\MSVC\14.26.28801\BIN\HOSTX86\X86\1033\LINKUI.DLL
C:\WINDOWS\SYSTEM32\TZRES.DLL
C:\WINDOWS\MICROSOFT.NET\FRAMEWORK\V2.0.50727\MSCORWKS.DLL
C:\WINDOWS\MICROSOFT.NET\FRAMEWORK\V4.0.30319\CLR.DLL
C:\PROGRAM FILES (X86)\MICROSOFT VISUAL STUDIO\2019\ENTERPRISE\VC\TOOLS\MSVC\14.26.28801\BIN\HOSTX86\X86\LINK.EXE.CONFIG
C:\PROGRAM FILES (X86)\WINDOWS KITS\10\LIB\10.0.18362.0\UM\X86\UUID.LIB
C:\PROGRAM FILES (X86)\MICROSOFT VISUAL STUDIO\2019\ENTERPRISE\VC\TOOLS\MSVC\14.26.28801\LIB\X86\MSVCRT.LIB
C:\PROGRAM FILES (X86)\MICROSOFT VISUAL STUDIO\2019\ENTERPRISE\VC\TOOLS\MSVC\14.26.28801\LIB\X86\OLDNAMES.LIB
C:\PROGRAM FILES (X86)\MICROSOFT VISUAL STUDIO\2019\ENTERPRISE\VC\TOOLS\MSVC\14.26.28801\LIB\X86\MSVCMRT.LIB
C:\PROGRAM FILES (X86)\WINDOWS KITS\NETFXSDK\4.8\LIB\UM\X86\MSCOREE.LIB
C:\PROGRAM FILES (X86)\MICROSOFT VISUAL STUDIO\2019\ENTERPRISE\VC\TOOLS\MSVC\14.26.28801\LIB\X86\MSVCPRT.LIB
C:\PROGRAM FILES (X86)\WINDOWS KITS\10\LIB\10.0.18362.0\UM\X86\KERNEL32.LIB
C:\PROGRAM FILES (X86)\WINDOWS KITS\10\LIB\10.0.18362.0\UCRT\X86\UCRT.LIB
C:\PROGRAM FILES (X86)\MICROSOFT VISUAL STUDIO\2019\ENTERPRISE\VC\TOOLS\MSVC\14.26.28801\LIB\X86\VCRUNTIME.LIB
C:\PROGRAM FILES (X86)\MICROSOFT VISUAL STUDIO\2019\ENTERPRISE\VC\TOOLS\MSVC\14.26.28801\BIN\HOSTX86\X86\CVTRES.EXE
D:\PRAKTIKUM\PROJEKTE\VISUAL_STUDIO\F103_BOOTLOADER_DESKTOP\RELEASE\F103BOOTLOADERDESKTOP.MAINFORM.RESOURCES
