^D:\PRAKTIKUM\PROJEKTE\VISUAL_STUDIO\F103_BOOTLOADER_DESKTOP\RELEASE\.NETFRAMEWORK,VERSION=V4.7.2.ASSEMBLYATTRIBUTES.OBJ|D:\PRAKTIKUM\PROJEKTE\VISUAL_STUDIO\F103_BOOTLOADER_DESKTOP\RELEASE\MAINFORM.OBJ|D:\PRAKTIKUM\PROJEKTE\VISUAL_STUDIO\F103_BOOTLOADER_DESKTOP\RELEASE\SENDER.OBJ
D:\PRAKTIKUM\PROJEKTE\VISUAL_STUDIO\F103_BOOTLOADER_DESKTOP\RELEASE\F103_BOOTLOADER_DESKTOP.EXE
D:\PRAKTIKUM\PROJEKTE\VISUAL_STUDIO\F103_BOOTLOADER_DESKTOP\RELEASE\F103_BOOTLOADER_DESKTOP.PDB
